[gd_scene load_steps=4 format=3 uid="uid://c5ngr36nfirbm"]

[ext_resource type="Script" path="res://scripts/game.gd" id="1_dihqm"]
[ext_resource type="PackedScene" uid="uid://cfggd8ykemkql" path="res://scenes/player.tscn" id="2_14lc4"]
[ext_resource type="PackedScene" uid="uid://35n6ry7b1koy" path="res://scenes/laser.tscn" id="3_jq4ci"]

[node name="game" type="Node2D"]
script = ExtResource("1_dihqm")

[node name="player" parent="." instance=ExtResource("2_14lc4")]
position = Vector2(-1, -1)

[node name="player_spawn_position" type="Marker2D" parent="."]
position = Vector2(270, 850)

[node name="laser" parent="." instance=ExtResource("3_jq4ci")]

[node name="laser_container" type="Node2D" parent="."]
