[gd_scene load_steps=3 format=3 uid="uid://cfggd8ykemkql"]

[ext_resource type="Texture2D" uid="uid://bygckmqi8csme" path="res://assets/PNG/playerShip1_blue.png" id="1_gapgi"]
[ext_resource type="Script" path="res://scripts/player.gd" id="1_ws6fr"]

[node name="player" type="CharacterBody2D" groups=["player"]]
motion_mode = 1
script = ExtResource("1_ws6fr")

[node name="Sprite2D" type="Sprite2D" parent="."]
position = Vector2(0, -2.38419e-07)
scale = Vector2(0.7, 0.7)
texture = ExtResource("1_gapgi")

[node name="CollisionPolygon2D" type="CollisionPolygon2D" parent="."]
position = Vector2(-252, -818)
polygon = PackedVector2Array(246, 792, 258, 792, 260, 809, 277, 819, 280, 818, 285, 814, 283, 834, 281, 831, 277, 834, 262, 836, 257, 844, 247, 844, 243, 837, 242, 836, 227, 834, 223, 831, 221, 834, 219, 814, 223, 818, 227, 819, 244, 809)

[node name="muzzle" type="Marker2D" parent="."]
position = Vector2(0, -56)
